…
Let’s go deeper into each step.

#### 1.1 Create (mutate) or rename a column in results with the gene symbols named “Approved.symbol”

Currently, we have “results” with gene symbols as the row names and
“results2” has a column called “X” with the gene symbol. Depending on
which data frame we use, e can either use mutate to create a new column
with the name “Approved.symbol”, or we can rename column X.

``` r
results %>% mutate(Approved.symbol = row.names(.))  
```

    ## # A tibble: 15,529 × 7
    ##      logFC AveExpr      t  P.Value adj.P.Val      B Approved.symbol
    ##      <dbl>   <dbl>  <dbl>    <dbl>     <dbl>  <dbl> <chr>          
    ##  1  0.103    1.35   0.322 0.748       0.875  -5.67  A1BG           
    ##  2  0.136   -0.238  0.640 0.524       0.731  -5.35  A1BG-AS1       
    ##  3 -0.0161   9.80  -0.113 0.910       0.956  -5.96  A2M            
    ##  4  0.605    2.54   3.49  0.000813    0.0555 -0.635 A2M-AS1        
    ##  5  0.354   -1.17   1.08  0.284       0.529  -4.95  A2ML1          
    ##  6  0.658   -0.756  3.26  0.00166     0.0607 -1.36  A2MP1          
    ##  7  0.0655   6.54   0.565 0.574       0.767  -6.07  A4GALT         
    ##  8  0.192    5.48   1.99  0.0504      0.214  -4.37  AAAS           
    ##  9  0.0341   4.51   0.441 0.660       0.823  -6.11  AACS           
    ## 10  0.355    1.88   2.94  0.00432     0.0763 -2.04  AADAT          
    ## # … with 15,519 more rows
…
